…
## What is mean total number of steps taken per day?
**1. Calculate the total number of steps taken per day**

```r
stepsByDay <- activity %>%
    filter(!is.na(activity$steps)) %>%
    group_by(date) %>%
    summarise(stepsPerDay=sum(steps))
stepsByDay
```

```
## # A tibble: 53 × 2
##    date       stepsPerDay
##    <date>           <int>
##  1 2012-10-02         126
##  2 2012-10-03       11352
##  3 2012-10-04       12116
##  4 2012-10-05       13294
##  5 2012-10-06       15420
##  6 2012-10-07       11015
##  7 2012-10-09       12811
##  8 2012-10-10        9900
##  9 2012-10-11       10304
## 10 2012-10-12       17382
## # ℹ 43 more rows
```
…
## What is the average daily activity pattern?
**1. Make a time series plot (i.e. type = "l") of the 5-minute interval (x-axis) and the average number of steps taken, averaged across all days (y-axis)**


```r
stepsByInterval <- activity %>%
    filter(!is.na(activity$steps)) %>%
    group_by(interval) %>%
    summarise(averageSteps=mean(steps))
stepsByInterval
```

```
## # A tibble: 288 × 2
##    interval averageSteps
##       <int>        <dbl>
##  1        0       1.72  
##  2        5       0.340 
##  3       10       0.132 
##  4       15       0.151 
##  5       20       0.0755
##  6       25       2.09  
##  7       30       0.528 
##  8       35       0.868 
##  9       40       0     
## 10       45       1.47  
## # ℹ 278 more rows
```
…
